6 X,Y,Radius,Rotated,Blur,Project,Lighting
2320,918,165,1,0,1,0,wilde
2371,1823,163,1,0,0,0,wilde
1266,1252,178,1,0,0,0,wilde
3457,1471,467,1,0,1,0,taylor
1382,2895,230,1,0,0,0,wilde
2000,2923,277,1,0,0,0,wilde
